<svg width="24" height="24" viewBox="0 0 24 24" fill="none" xmlns="http://www.w3.org/2000/svg">
<path d="M24 4H0V9.33321H24V4Z" fill="#D80027"/>
<path d="M24 14.6665H0V19.9997H24V14.6665Z" fill="#D80027"/>
</svg>
