<svg width="24" height="24" viewBox="0 0 24 24" fill="none" xmlns="http://www.w3.org/2000/svg">
<path d="M16 4H7.99997H0V19.9999H7.99997H16H24V4H16Z" fill="#F0F0F0"/>
<path d="M7.99983 4H0V20.0002H7.99983V4Z" fill="#6DA544"/>
<path d="M24.0001 4H16.0002V20.0002H24.0001V4Z" fill="#D80027"/>
</svg>
