<svg width="19" height="18" viewBox="0 0 19 18" xmlns="http://www.w3.org/2000/svg">
	<path d="M17.0437 7.70625L15.525 7.48125C15.3562 6.75 15.075 6.075 14.6813 5.4L15.525 4.21875C15.8625 3.76875 15.8062 3.15 15.4125 2.75625L15.1875 2.5875C14.7937 2.19375 14.175 2.1375 13.725 2.475L12.5437 3.31875C11.925 2.925 11.25 2.64375 10.4625 2.475L10.2375 0.95625C10.125 0.39375 9.675 0 9.1125 0H8.775C8.2125 0 7.7625 0.39375 7.65 0.95625L7.425 2.475C6.75 2.5875 6.01875 2.86875 5.4 3.2625L4.275 2.475C3.825 2.1375 3.20625 2.19375 2.8125 2.5875L2.5875 2.8125C2.19375 3.20625 2.1375 3.825 2.475 4.275L3.31875 5.45625C2.925 6.075 2.64375 6.75 2.475 7.5375L0.95625 7.7625C0.39375 7.875 0 8.325 0 8.8875V9.225C0 9.7875 0.39375 10.2375 0.95625 10.35L2.475 10.575C2.64375 11.3062 2.925 11.9812 3.31875 12.6562L2.475 13.8375C2.1375 14.2875 2.19375 14.9062 2.5875 15.3L2.8125 15.4125C3.20625 15.8062 3.825 15.8625 4.275 15.525L5.45625 14.6813C6.075 15.075 6.75 15.3562 7.5375 15.525L7.7625 17.0437C7.875 17.6062 8.325 18 8.8875 18H9.225C9.7875 18 10.2375 17.6062 10.35 17.0437L10.575 15.525C11.3062 15.3562 11.9812 15.075 12.6562 14.6813L13.8375 15.525C14.2875 15.8625 14.9062 15.8062 15.3 15.4125L15.525 15.1875C15.9187 14.7937 15.975 14.175 15.6375 13.725L14.7937 12.5437C15.1875 11.925 15.4688 11.25 15.6375 10.4625L17.1562 10.2375C17.7188 10.125 18.1125 9.675 18.1125 9.1125V8.775C18 8.26875 17.6062 7.81875 17.0437 7.70625ZM9 12.375C7.14375 12.375 5.625 10.8562 5.625 9C5.625 7.14375 7.14375 5.625 9 5.625C10.8562 5.625 12.375 7.14375 12.375 9C12.375 10.8562 10.8562 12.375 9 12.375Z" />
</svg>
