<svg width="18" height="14" viewBox="0 0 18 14" xmlns="http://www.w3.org/2000/svg">
	<path d="M16 2V12H2V2H16ZM17 0H1C0.45 0 0 0.45 0 1V13C0 13.55 0.45 14 1 14H17C17.55 14 18 13.55 18 13V1C18 0.45 17.55 0 17 0Z" />
	<path d="M6 0H4V14H6V0Z" />
	<path d="M14 0H12V14H14V0Z" />
	<path d="M4 4H2V6H4V4Z" />
	<path d="M4 8H2V10H4V8Z" />
	<path d="M16 4H14V6H16V4Z" />
	<path d="M16 8H14V10H16V8Z" />
</svg>
