<svg width="63" height="63" viewBox="0 0 63 63" xmlns="http://www.w3.org/2000/svg">
<path id="Shape" fill-rule="evenodd" clip-rule="evenodd" d="M38.0764 14.7153L34.3641 18.4276C33.5952 19.1964 32.3487 19.1964 31.5798 18.4276C30.811 17.6587 30.811 16.4122 31.5798 15.6433L35.2921 11.931C39.6489 7.57424 46.7127 7.57424 51.0695 11.931C55.4262 16.2878 55.4262 23.3516 51.0695 27.7083L42.5575 36.2203C38.2007 40.5771 31.137 40.5771 26.7802 36.2203C26.0114 35.4514 26.0114 34.2049 26.7802 33.436C27.549 32.6672 28.7956 32.6672 29.5644 33.436C32.3835 36.2551 36.9542 36.2551 39.7733 33.436L48.2852 24.9241C51.1043 22.105 51.1043 17.5344 48.2852 14.7153C45.4661 11.8962 40.8955 11.8962 38.0764 14.7153ZM24.9238 48.2852L29.405 43.8041C30.1738 43.0352 31.4204 43.0352 32.1892 43.8041C32.9581 44.5729 32.9581 45.8195 32.1892 46.5883L27.7081 51.0695C23.3513 55.4263 16.2875 55.4263 11.9307 51.0695C7.57395 46.7127 7.57396 39.6489 11.9307 35.2922L20.4427 26.7802C24.7995 22.4234 31.8632 22.4234 36.22 26.7802C36.9888 27.5491 36.9888 28.7956 36.22 29.5645C35.4511 30.3333 34.2046 30.3333 33.4358 29.5645C30.6167 26.7454 26.046 26.7454 23.2269 29.5645L14.715 38.0764C11.8959 40.8955 11.8959 45.4661 14.715 48.2852C17.5341 51.1043 22.1047 51.1043 24.9238 48.2852Z"/>
</svg>
