<svg width="23" height="23" viewBox="0 0 23 23" xmlns="http://www.w3.org/2000/svg">
	<rect x="10" width="2" height="23"/>
	<rect x="23" y="10" width="2" height="23" transform="rotate(90 23 10)"/>
</svg>
