<svg width="16" height="16" viewBox="0 0 16 16" xmlns="http://www.w3.org/2000/svg">
<path fill-rule="evenodd" clip-rule="evenodd" d="M13.3057 2.67206C11.9024 1.26709 10.0361 0.493011 8.04785 0.492188C3.95087 0.492188 0.616516 3.82645 0.614868 7.92453C0.614319 9.23456 0.956543 10.5134 1.60703 11.6406L0.552521 15.4922L4.49286 14.4586C5.57858 15.0508 6.8009 15.3629 8.04483 15.3633H8.04794C12.1445 15.3633 15.4792 12.0287 15.4807 7.93048C15.4816 5.94434 14.7091 4.07693 13.3057 2.67206ZM8.04785 14.108H8.04529C6.93677 14.1075 5.84958 13.8096 4.90091 13.2469L4.67542 13.1129L2.33716 13.7263L2.96127 11.4466L2.81433 11.2128C2.19589 10.2292 1.86932 9.09228 1.86987 7.92499C1.87115 4.51877 4.64264 1.74756 8.05032 1.74756C9.70047 1.74811 11.2516 2.39154 12.418 3.5593C13.5844 4.72705 14.2264 6.27924 14.2258 7.93002C14.2244 11.3365 11.4531 14.108 8.04785 14.108ZM11.4366 9.48102C11.2509 9.388 10.3378 8.93884 10.1675 8.87677C9.99738 8.81479 9.87341 8.78393 9.74973 8.96979C9.62585 9.15564 9.26999 9.57403 9.16159 9.6979C9.05319 9.82187 8.94498 9.83743 8.75922 9.74441C8.57346 9.65149 7.97507 9.45529 7.26562 8.82257C6.71356 8.33011 6.34085 7.72192 6.23245 7.53607C6.12424 7.35004 6.23154 7.25922 6.31393 7.15704C6.51498 6.90738 6.71631 6.64563 6.7782 6.52176C6.84018 6.3978 6.80914 6.28931 6.76263 6.19638C6.71631 6.10345 6.34488 5.1893 6.19016 4.81732C6.03928 4.45532 5.88629 4.50421 5.77222 4.49853C5.664 4.49313 5.54013 4.49203 5.41626 4.49203C5.29248 4.49203 5.09125 4.53845 4.92096 4.72449C4.75076 4.91043 4.27103 5.35968 4.27103 6.27383C4.27103 7.18799 4.93652 8.0711 5.02936 8.19507C5.12219 8.31903 6.33902 10.1949 8.20203 10.9993C8.64514 11.1909 8.99103 11.305 9.26083 11.3906C9.70578 11.532 10.1105 11.512 10.4306 11.4642C10.7875 11.4109 11.5293 11.0149 11.6842 10.5811C11.839 10.1472 11.839 9.77545 11.7924 9.6979C11.7461 9.62045 11.6223 9.57403 11.4366 9.48102Z" />
</svg>
